<?xml version="1.0" encoding="UTF-8"?>
<svg width="16" height="16" version="1.1" xmlns="http://www.w3.org/2000/svg">
	<g fill="#FF0" stroke="#663" stroke-width="1">
		<rect fill="#000" stroke="#666" x="1" y="1" width="14" height="2" rx="4" ry="1"/>
		<rect fill="#000" stroke="#666" x="1" y="4" width="14" height="2" rx="4" ry="1"/>
		<rect x="1" y="7" width="14" height="2" rx="4" ry="1"/>
		<rect x="1" y="10" width="14" height="2" rx="4" ry="1"/>
		<rect x="1" y="13" width="14" height="2" rx="4" ry="1"/>
	</g>
</svg>